INDEX VERSION 1.127+C:\repos\transactions\.metadata\.plugins\org.eclipse.jdt.core
3764404749.index
430205200.index
83085761.index
47423239.index
1948745554.index
1651349548.index
2261558828.index
2945162093.index
4142306923.index
1670528678.index
1507339265.index
3876561862.index
3699003289.index
3678980623.index
4236009997.index
900771366.index
1484076330.index
509712851.index
